<svg xmlns="http://www.w3.org/2000/svg" version="1.1" xmlns:xlink="http://www.w3.org/1999/xlink" xmlns:svgjs="http://svgjs.com/svgjs" width="121.32814mm" height="116.39271mm"><svg width="121.32814mm" height="116.39271mm" viewBox="0 0 121.32814 116.39271" version="1.1" id="SvgjsSvg1006" inkscape:export-filename="hawk.png" inkscape:export-xdpi="42.759998" inkscape:export-ydpi="42.759998" xmlns:inkscape="http://www.inkscape.org/namespaces/inkscape" xmlns:sodipodi="http://sodipodi.sourceforge.net/DTD/sodipodi-0.dtd" xmlns="http://www.w3.org/2000/svg" xmlns:svg="http://www.w3.org/2000/svg">
  <sodipodi:namedview id="SvgjsSodipodi:namedview1005" pagecolor="#ffffff" bordercolor="#000000" borderopacity="0.25" inkscape:showpageshadow="2" inkscape:pageopacity="0.0" inkscape:pagecheckerboard="0" inkscape:deskcolor="#d1d1d1" inkscape:document-units="mm"></sodipodi:namedview>
  <defs id="SvgjsDefs1004"></defs>
  <g inkscape:label="Layer 1" inkscape:groupmode="layer" id="SvgjsG1003">
    <g id="SvgjsG1002" transform="matrix(0.26458333,0,0,0.26458333,-115.72487,-82.914759)">
      <path id="SvgjsPath1001" d="m 6604.14,4360.95 c 0,0 163.65,288.35 101.31,506.56 -62.34,218.2 -311.73,448.1 -814.38,420.82 0,0 -374.07,-241.58 -728.65,-93.52 -354.59,148.07 -736.45,-124.68 -452,-413.03 284.44,-288.34 670.35,-236.2 659.96,-651.83 0,0 190.95,411.41 622,519.35 331.2,82.93 623.45,27.27 611.76,-288.35" style="fill:#211c1d;fill-opacity:1;fill-rule:nonzero;stroke:none" transform="matrix(0.13333333,0,0,-0.13333333,0,1066.6667)"></path>
      <path id="SvgjsPath1000" d="m 5879.38,5366.26 c 0,0 -97.42,58.45 -385.76,179.24 -288.34,120.8 -872.82,155.86 -1278.06,0 -405.25,-155.86 -716.97,-463.68 -833.86,-923.48 0,0 292.24,288.35 576.69,331.21 0,0 -498.76,-300.04 -623.45,-833.86 0,0 475.37,463.69 775.41,533.82 0,0 -666.31,-401.34 -829.96,-1055.96 0,0 280.55,296.14 526.03,342.9 0,0 175.35,-490.97 50.65,-892.31 0,0 413.04,300.03 467.59,755.93 0,0 -23.38,-214.31 81.82,-463.69 105.21,-249.38 -11.69,-568.89 -11.69,-568.89 0,0 300.04,257.17 354.59,490.96 54.56,233.79 -11.68,646.83 167.55,783.2 0,0 -128.58,-264.96 -35.06,-584.48 93.51,-319.51 268.85,-779.31 15.58,-1110.51 0,0 619.55,311.72 557.21,837.75 -62.35,526.04 42.86,931.28 42.86,931.28 0,0 -66.24,-370.17 3.9,-658.52 70.13,-288.34 124.68,-592.27 23.37,-845.55 0,0 253.88,280.55 140.58,779.31 -113.3,498.76 -24.83,974.33 342.6,1210.72 0,0 -432.37,-109.1 -662.41,-575.58 0,0 0,303.93 -187.04,409.14 -187.04,105.2 -502.6,248.18 -564.99,424.72 -64.81,183.33 -21.13,362.22 276.65,426.93 187.03,40.65 238.77,134.65 463.69,118.58 272.75,-19.48 327.3,-155.86 545.51,-42.86" style="fill:#211c1d;fill-opacity:1;fill-rule:nonzero;stroke:none" transform="matrix(0.13333333,0,0,-0.13333333,0,1066.6667)"></path>
    </g>
  </g>
</svg><style>@media (prefers-color-scheme: light) { :root { filter: none; } }
</style></svg>